<svg width="517" height="468" viewBox="0 0 517 468" fill="none" xmlns="http://www.w3.org/2000/svg">
<path d="M295.248 465.159C156.909 457.536 -8.08203 379.733 0.307347 299.61C8.69673 219.487 168.494 144.915 306.834 152.538C445.173 160.161 524.786 309.926 516.397 390.048C508.008 470.13 433.587 472.823 295.248 465.159Z" fill="#161616"/>
<path d="M469.773 84.909C487.174 110.316 483.323 143.23 483.323 143.23C483.323 143.23 451.26 134.95 433.859 109.542C416.458 84.135 420.309 51.2216 420.309 51.2216C420.309 51.2216 452.372 59.5016 469.773 84.909Z" fill="#2C2C33"/>
<path d="M457.252 89.7604C459.289 120.495 482.661 143.969 482.661 143.969C482.661 143.969 502.733 117.613 500.697 86.8779C498.66 56.143 475.288 32.6688 475.288 32.6688C475.288 32.6688 455.216 59.0256 457.252 89.7604Z" fill="#444444"/>
<path d="M257.47 0.640063L493.72 119.507C495.684 120.495 497.313 122.041 498.403 123.952C499.493 125.863 499.996 128.053 499.848 130.248L486.122 333.718C486.06 334.631 485.774 335.514 485.288 336.289C484.802 337.063 484.132 337.706 483.338 338.158C482.544 338.611 481.65 338.86 480.736 338.883C479.823 338.905 478.918 338.701 478.102 338.289L236.465 214.877L248.87 5.60013C248.928 4.61708 249.23 3.6639 249.747 2.82621C250.265 1.98852 250.982 1.29256 251.834 0.80081C252.687 0.309063 253.648 0.0369409 254.632 0.00888377C255.615 -0.0191734 256.591 0.197712 257.47 0.640063Z" fill="#8C8A97"/>
<path d="M260.189 4.78624L490.636 120.733C492.552 121.697 494.141 123.206 495.205 125.07C496.268 126.933 496.758 129.07 496.614 131.211L483.225 329.683C483.165 330.573 482.885 331.435 482.412 332.19C481.938 332.946 481.285 333.573 480.51 334.014C479.735 334.456 478.863 334.698 477.972 334.721C477.081 334.743 476.198 334.544 475.402 334.141L239.7 213.761L251.801 9.62449C251.858 8.66558 252.152 7.73581 252.656 6.9187C253.161 6.10158 253.861 5.42271 254.692 4.94304C255.524 4.46337 256.461 4.19794 257.421 4.17057C258.38 4.1432 259.332 4.35476 260.189 4.78624Z" fill="#2B2A30"/>
<path d="M270.289 20.1867L479.182 125.289C480.919 126.163 482.359 127.53 483.323 129.22C484.287 130.909 484.731 132.846 484.6 134.787L472.464 314.696C472.409 315.503 472.156 316.284 471.727 316.969C471.297 317.654 470.705 318.222 470.003 318.622C469.3 319.022 468.51 319.242 467.702 319.262C466.894 319.283 466.094 319.102 465.373 318.737L251.716 209.616L262.685 24.5724C262.736 23.7032 263.003 22.8604 263.46 22.1197C263.918 21.379 264.552 20.7636 265.306 20.3288C266.059 19.894 266.909 19.6534 267.779 19.6286C268.649 19.6038 269.511 19.7956 270.289 20.1867Z" fill="#1D1D1D"/>
<path d="M54.7423 314.996L291.294 434.216C293.495 435.324 295.926 435.899 298.39 435.896C300.854 435.893 303.283 435.311 305.481 434.198L480.476 345.298C482.528 343.245 482.241 340.201 481.585 337.917C481.266 336.811 480.833 335.741 480.291 334.726L456.444 322.174L255.949 222.064L243.97 215.7C240.799 214.019 237.268 213.134 233.68 213.119C230.091 213.105 226.553 213.962 223.368 215.617L54.6683 303.313C53.595 303.869 52.6961 304.711 52.0711 305.746C51.4461 306.78 51.1194 307.968 51.1271 309.177C51.1347 310.387 51.4765 311.57 52.1145 312.597C52.7526 313.624 53.662 314.454 54.7423 314.996Z" fill="#8C8A97"/>
<path opacity="0.1" d="M54.7421 314.996L291.294 434.216C293.495 435.324 295.926 435.899 298.39 435.896C300.854 435.893 303.283 435.311 305.481 434.198L480.476 345.298C482.528 343.245 482.241 340.201 481.585 337.917L307.113 428.671C304.984 429.778 302.624 430.366 300.225 430.387C297.825 430.407 295.455 429.86 293.308 428.789L51.2113 308.086C50.9837 309.465 51.2039 310.879 51.8394 312.123C52.475 313.367 53.4924 314.374 54.7421 314.996Z" fill="black"/>
<path opacity="0.1" d="M279.267 350.717L202.659 311.975C201.117 311.195 199.41 310.798 197.682 310.818C195.954 310.838 194.256 311.273 192.732 312.088L148.291 335.848C147.778 336.123 147.35 336.533 147.053 337.035C146.757 337.536 146.604 338.109 146.611 338.692C146.617 339.274 146.784 339.844 147.092 340.338C147.4 340.833 147.838 341.233 148.358 341.495L226.467 380.913C227.764 381.567 229.202 381.892 230.654 381.859C232.107 381.826 233.528 381.435 234.794 380.721L279.411 355.566C279.846 355.32 280.206 354.961 280.451 354.526C280.697 354.091 280.819 353.597 280.804 353.097C280.789 352.598 280.638 352.112 280.367 351.693C280.096 351.273 279.715 350.936 279.267 350.717Z" fill="black"/>
<path opacity="0.1" d="M459.69 344.237L377.253 388.065C376.304 388.569 375.249 388.838 374.174 388.849C373.1 388.86 372.039 388.612 371.081 388.127L138.162 270.251C137.505 269.918 136.955 269.41 136.571 268.782C136.187 268.154 135.985 267.432 135.988 266.696C135.991 265.96 136.199 265.24 136.589 264.615C136.978 263.991 137.533 263.487 138.192 263.16L218.694 223.286C219.907 222.685 221.243 222.375 222.597 222.38C223.951 222.385 225.285 222.705 226.494 223.314L459.653 340.879C459.963 341.035 460.223 341.273 460.406 341.567C460.59 341.861 460.689 342.2 460.692 342.547C460.696 342.894 460.605 343.235 460.428 343.533C460.251 343.831 459.995 344.075 459.69 344.237Z" fill="black"/>
<path d="M257.622 70.7447L250.928 86.6786L307.434 116.361L326.47 60.6099" fill="#CCCCCC"/>
<path d="M306.131 106.585L331.093 47.8048L273.721 19.5515L249.625 76.9028L306.131 106.585Z" fill="#444444"/>
<path d="M272.365 42.0294L271.944 42.8533L315.38 65.064L315.8 64.2401L272.365 42.0294Z" fill="#CCCCCC"/>
<path d="M269.108 49.8501L268.688 50.674L312.123 72.8846L312.544 72.0608L269.108 49.8501Z" fill="#CCCCCC"/>
<g clip-path="url(#clip0_380:127)">
<path d="M405.865 205.074L405.443 203.768L410.663 202.083L408.978 196.863L410.283 196.442L412.39 202.967L405.865 205.074Z" fill="#444444"/>
<path d="M349.432 145.725L337.165 139.446L336.642 140.468L348.909 146.747L349.432 145.725Z" fill="#CCCCCC"/>
<path d="M365.788 154.097L353.521 147.818L352.997 148.84L365.264 155.12L365.788 154.097Z" fill="#CCCCCC"/>
<path d="M384.714 175.72L372.447 169.44L371.924 170.462L384.191 176.742L384.714 175.72Z" fill="#CCCCCC"/>
<path d="M405.441 186.329L389.06 177.943L388.536 178.966L404.918 187.351L405.441 186.329Z" fill="#CCCCCC"/>
<path d="M406.167 174.767L370.133 156.321L369.61 157.344L405.644 175.789L406.167 174.767Z" fill="#CCCCCC"/>
<path d="M368.358 167.347L336.482 151.03L335.959 152.053L367.835 168.369L368.358 167.347Z" fill="#CCCCCC"/>
<path d="M363.517 176.803L335.811 162.62L335.287 163.642L362.994 177.825L363.517 176.803Z" fill="#CCCCCC"/>
<path d="M404.653 197.859L371.441 180.858L370.918 181.881L404.13 198.881L404.653 197.859Z" fill="#CCCCCC"/>
<path d="M331.508 141.996L329.401 135.471L335.926 133.365L336.347 134.67L331.128 136.355L332.813 141.575L331.508 141.996Z" fill="#444444"/>
</g>
<defs>
<clipPath id="clip0_380:127">
<rect width="108.036" height="103.257" fill="white" transform="translate(346.441 98.929) rotate(27.1074)"/>
</clipPath>
</defs>
</svg>
