<svg width="1920" height="121" viewBox="0 0 1920 121" fill="none" xmlns="http://www.w3.org/2000/svg">
<g clip-path="url(#clip0_321:374)">
<path d="M1919 121L1920 9.70188L1919.56 9.76682C1495.6 72.6598 526.387 185.653 0.146655 6.68189e-05C-0.183319 -0.103835 0.146655 121 0.146655 121H1919Z" fill="#F2F2F2"/>
</g>
<defs>
<clipPath id="clip0_321:374">
<rect width="1920" height="121" fill="white"/>
</clipPath>
</defs>
</svg>
